\relax 
\providecommand\tcolorbox@label[2]{}
\citation{Shingare}
\citation{Rothermel}
\citation{Rothermel}
\citation{Lo}
\citation{Lo}
\citation{Lo}
\citation{Lo}
\citation{Wang}
\citation{Weise_Effect}
\citation{Beaudoin}
\citation{Beaudoin}
\citation{Lo}
\citation{Lo}
\citation{Origin}
\citation{Sanchez}
\citation{Wang}
\@writefile{toc}{\contentsline {chapter}{\numberline {1}Introduction}{1}}
\@writefile{lof}{\addvspace {10\p@ }}
\@writefile{lot}{\addvspace {10\p@ }}
\newlabel{chap:Introduction}{{1}{1}}
\@writefile{toc}{\contentsline {section}{\numberline {1.1}Overview}{1}}
\@writefile{toc}{\contentsline {section}{\numberline {1.2}Research Goals}{1}}
\newlabel{sec:Goals}{{1.2}{1}}
\@writefile{toc}{\contentsline {section}{\numberline {1.3}Document Structure}{2}}
\citation{Bonham}
\citation{Offermo}
\@writefile{toc}{\contentsline {chapter}{\numberline {2}Literature Review}{3}}
\@writefile{lof}{\addvspace {10\p@ }}
\@writefile{lot}{\addvspace {10\p@ }}
\newlabel{chap:Lit Review}{{2}{3}}
\@writefile{toc}{\contentsline {section}{\numberline {2.1}Introduction}{3}}
\newlabel{sec:Lit Intro}{{2.1}{3}}
\@writefile{toc}{\contentsline {section}{\numberline {2.2}Geographical Information Systems}{3}}
\newlabel{sec:Lit GIS}{{2.2}{3}}
\citation{Werner}
\citation{Werner}
\citation{Ayeni}
\citation{Shingare}
\citation{Shingare}
\citation{Shingare}
\citation{Shingare}
\@writefile{toc}{\contentsline {subsection}{\numberline {2.2.1}Topographic Maps}{4}}
\newlabel{sec:Lit Topographic Maps}{{2.2.1}{4}}
\@writefile{toc}{\contentsline {subsection}{\numberline {2.2.2}Digital Elevation Models}{4}}
\newlabel{sec:Lit DEM}{{2.2.2}{4}}
\citation{Shingare}
\citation{Shingare}
\citation{Shingare}
\citation{Shingare}
\citation{Rothermel}
\citation{Wells}
\citation{Wells}
\citation{Rothermel}
\@writefile{lof}{\contentsline {figure}{\numberline {2.1}{\ignorespaces DEM data structures \citep  {Shingare}\relax }}{5}}
\providecommand*\caption@xref[2]{\@setref\relax\@undefined{#1}}
\newlabel{fig:DEM Data}{{2.1}{5}}
\@writefile{toc}{\contentsline {section}{\numberline {2.3}Non-Spacial Fire Spread}{5}}
\newlabel{sec:Lit Non-Spatial}{{2.3}{5}}
\citation{Frandsen}
\citation{Rothermel}
\citation{Rothermel}
\citation{Rothermel}
\citation{Rothermel}
\citation{Rothermel}
\@writefile{toc}{\contentsline {subsection}{\numberline {2.3.1}Rothermel's Model for Calculating Rate of Spread}{6}}
\newlabel{sec:Lit Rothermel}{{2.3.1}{6}}
\newlabel{eq:Frandsen ROS}{{2.1}{6}}
\newlabel{eq:Rothermel ROS}{{2.2}{6}}
\citation{Rothermel}
\citation{Albini}
\citation{Albini}
\citation{Rothermel}
\citation{Anderson}
\citation{Anderson}
\newlabel{eq:Rothermel All Start}{{2.3}{8}}
\newlabel{eq:Gamma}{{2.4}{8}}
\newlabel{eq:Gamma Max}{{2.5}{8}}
\newlabel{eq:beta_op}{{2.6}{8}}
\newlabel{eq:A}{{2.7}{8}}
\newlabel{eq:Eta M}{{2.8}{8}}
\newlabel{eq:Eta S}{{2.9}{8}}
\newlabel{eq:Xi}{{2.10}{8}}
\newlabel{eq:Wn}{{2.11}{8}}
\newlabel{eq:pb}{{2.12}{8}}
\newlabel{eq:epsilon}{{2.13}{8}}
\newlabel{eq:Qig}{{2.14}{8}}
\newlabel{eq:Rothermel All End}{{2.15}{8}}
\citation{Rothermel}
\citation{Rothermel}
\@writefile{lot}{\contentsline {table}{\numberline {2.1}{\ignorespaces Fuel Model Descriptions and Parameters\relax }}{9}}
\newlabel{table:Fuel Models}{{2.1}{9}}
\newlabel{eq:Mx Living}{{2.16}{9}}
\citation{Rothermel}
\citation{Rothermel}
\citation{Rothermel}
\citation{Rothermel}
\citation{Rothermel}
\@writefile{lof}{\contentsline {figure}{\numberline {2.2}{\ignorespaces Mass loss, and its derivative, over time \citep  {Rothermel}\relax }}{10}}
\newlabel{fig:Mass Loss}{{2.2}{10}}
\@writefile{toc}{\contentsline {subsection}{\numberline {2.3.2}Rothermel's Model for Wind and Slope modifiers}{10}}
\newlabel{sec:Lit Rothermel W&S}{{2.3.2}{10}}
\@writefile{lof}{\contentsline {figure}{\numberline {2.3}{\ignorespaces Schematics of fire \citep  {Rothermel}\relax }}{10}}
\newlabel{fig:Rothermel W&S}{{2.3}{10}}
\citation{Beaudoin}
\newlabel{eq:Rothermel ROS W&S}{{2.17}{11}}
\newlabel{eq:Rothermel Slope}{{2.18}{11}}
\newlabel{eq:Rothermel Wind}{{2.19}{11}}
\@writefile{toc}{\contentsline {section}{\numberline {2.4}Fire Simulations}{11}}
\newlabel{sec:Lit Fire Sim}{{2.4}{11}}
\@writefile{toc}{\contentsline {subsection}{\numberline {2.4.1}Raster vs. Vector based Fire Simulation}{11}}
\newlabel{sec:Lit Raster vs Vector Fire}{{2.4.1}{11}}
\citation{Lo}
\citation{Lo}
\citation{Lo}
\citation{Lo}
\citation{Lo}
\citation{Lo}
\citation{Lo}
\citation{Lo}
\citation{Lo}
\citation{Lo}
\citation{Lo}
\citation{Lo}
\@writefile{lof}{\contentsline {figure}{\numberline {2.4}{\ignorespaces Raster-based representation \citep  {Lo}\relax }}{12}}
\newlabel{fig:Raster representation}{{2.4}{12}}
\citation{Lo}
\citation{Lo}
\citation{Lo}
\citation{Lo}
\citation{Berjak}
\citation{Lo}
\citation{Lo}
\@writefile{lof}{\contentsline {figure}{\numberline {2.5}{\ignorespaces Vector-based representation \citep  {Lo}\relax }}{13}}
\newlabel{fig:Vector representation}{{2.5}{13}}
\@writefile{lof}{\contentsline {figure}{\numberline {2.6}{\ignorespaces Huygens' Principle \citep  {Lo}\relax }}{13}}
\newlabel{fig:Huygens principle}{{2.6}{13}}
\citation{Lo}
\citation{KT}
\citation{KT}
\citation{Wang}
\@writefile{lof}{\contentsline {figure}{\numberline {2.7}{\ignorespaces Various examples of fire-front crossovers \citep  {Lo}\relax }}{14}}
\newlabel{fig:crossovers}{{2.7}{14}}
\@writefile{toc}{\contentsline {subsection}{\numberline {2.4.2}Cellular Automata Approach}{14}}
\newlabel{sec: Lit CA}{{2.4.2}{14}}
\@writefile{toc}{\contentsline {subsubsection}{K-T Model}{14}}
\newlabel{sec:Lit KT}{{2.4.2}{14}}
\newlabel{eq:State}{{2.20}{14}}
\newlabel{eq:Ta}{{2.21}{14}}
\citation{Encinas}
\citation{KT}
\citation{KT}
\citation{Encinas}
\newlabel{eq:Time step}{{2.22}{15}}
\newlabel{eq:Td}{{2.23}{15}}
\newlabel{eq:Pythag}{{2.24}{15}}
\newlabel{eq:lambda}{{2.25}{15}}
\citation{Encinas}
\citation{Berjak}
\citation{Berjak}
\citation{Berjak}
\newlabel{eq:Vm}{{2.26}{16}}
\newlabel{eq:Vadj}{{2.27}{16}}
\newlabel{eq:Vdiag}{{2.28}{16}}
\newlabel{eq:State Transition .83}{{2.29}{16}}
\@writefile{toc}{\contentsline {subsubsection}{Berjak \& Hearne Model}{16}}
\newlabel{sec:Lit Berjak}{{2.4.2}{16}}
\citation{Berjak}
\citation{Berjak}
\citation{Berjak}
\citation{Berjak}
\newlabel{eq:State Heat}{{2.30}{17}}
\newlabel{eq:CI}{{2.31}{17}}
\newlabel{eq:Nf}{{2.32}{17}}
\citation{Berjak}
\citation{Berjak}
\citation{Berjak}
\newlabel{eq:CA ROS}{{2.33}{18}}
\newlabel{eq:Lambda Berjak}{{2.34}{18}}
\citation{Berjak}
\citation{Berjak}
\citation{Wang}
\citation{Wang}
\citation{Wang}
\citation{Wang}
\newlabel{eq:State Transition Berjak}{{2.35}{19}}
\newlabel{eq:Berjak Discrete}{{2.36}{19}}
\@writefile{toc}{\contentsline {subsection}{\numberline {2.4.3}Modelling Wind and Slope in a CA Approach}{19}}
\newlabel{sec:Lit CA Wind}{{2.4.3}{19}}
\@writefile{toc}{\contentsline {subsubsection}{Wang \textit  {et al.}'s Method for Wind Factors}{19}}
\citation{Wang}
\citation{Wang}
\citation{Berjak}
\@writefile{lof}{\contentsline {figure}{\numberline {2.8}{\ignorespaces Example Decomposition of Wind Vector \citep  {Wang}\relax }}{20}}
\newlabel{fig:Wind Vector Decomposition}{{2.8}{20}}
\@writefile{lot}{\contentsline {table}{\numberline {2.2}{\ignorespaces Summary of Wind Vector Decompositions \citep  {Wang}\relax }}{20}}
\newlabel{table:Wind Vector}{{2.2}{20}}
\citation{Weise_Effect}
\citation{Weise_Effect}
\citation{Trollope1984}
\citation{Trollope1978}
\citation{Berjak}
\citation{Weise_Effect}
\@writefile{toc}{\contentsline {subsubsection}{Berjak \& Hearne's Method for Wind and Slope}{21}}
\@writefile{lof}{\contentsline {figure}{\numberline {2.9}{\ignorespaces Flame Geometry Description \citep  {Weise_Effect}\relax }}{21}}
\newlabel{fig:Flame Angle}{{2.9}{21}}
\newlabel{eq:Flame Angle Height}{{2.37}{21}}
\newlabel{eq:Flame Angle Length}{{2.38}{21}}
\citation{Weise_Effect}
\citation{Berjak}
\citation{Berjak}
\citation{Berjak}
\citation{Berjak}
\newlabel{eq:Nc}{{2.39}{22}}
\newlabel{eq:Flame Angle Convection}{{2.40}{22}}
\newlabel{eq:Wind Coeff R}{{2.41}{22}}
\newlabel{eq:Wind Coeff}{{2.42}{22}}
\citation{Berjak}
\citation{Beaudoin}
\citation{Beaudoin}
\citation{Beaudoin}
\newlabel{eq:Slope}{{2.43}{23}}
\newlabel{eq:Slope Coeff}{{2.44}{23}}
\newlabel{eq:Topo ROS}{{2.45}{23}}
\@writefile{toc}{\contentsline {subsection}{\numberline {2.4.4}Mesh Based Fire Simulation}{23}}
\newlabel{sec:Lit Mesh Method}{{2.4.4}{23}}
\citation{Beaudoin}
\citation{Beaudoin}
\citation{Beaudoin}
\citation{Beaudoin}
\citation{Beaudoin}
\citation{Beaudoin}
\citation{Beaudoin}
\@writefile{lof}{\contentsline {figure}{\numberline {2.10}{\ignorespaces Broken-line boundary on a mesh \citep  {Beaudoin}\relax }}{24}}
\newlabel{fig:Mesh Boundary}{{2.10}{24}}
\newlabel{eq:Mesh-Vector Displacement}{{2.46}{24}}
\citation{Beaudoin}
\citation{Beaudoin}
\citation{Beaudoin}
\citation{Beaudoin}
\citation{Lo}
\newlabel{eq:Mesh-New Face Transition}{{2.47}{25}}
\@writefile{lof}{\contentsline {figure}{\numberline {2.11}{\ignorespaces Transforming a vertex's velocity \citep  {Beaudoin}\relax }}{25}}
\newlabel{fig:Mesh Velocity Transform}{{2.11}{25}}
\@writefile{toc}{\contentsline {subsection}{\numberline {2.4.5}Level Set Method for Heterogeneous Environments}{25}}
\newlabel{sec:Lit Level Set}{{2.4.5}{25}}
\citation{Osher}
\citation{Lo}
\citation{Lo}
\citation{Lo}
\citation{Lo}
\newlabel{eq:LS ROS}{{2.48}{26}}
\citation{Lo}
\citation{Lo}
\citation{Lo}
\citation{Lo}
\@writefile{lof}{\contentsline {figure}{\numberline {2.12}{\ignorespaces Evolution of the Fire Front \citep  {Lo}\relax }}{27}}
\newlabel{fig:Level Set Explanation}{{2.12}{27}}
\newlabel{eq:Level Set}{{2.49}{27}}
\newlabel{eq:Level Set Update}{{2.50}{27}}
\citation{Che}
\citation{Che}
\citation{Che}
\citation{Che}
\@writefile{lof}{\contentsline {figure}{\numberline {2.13}{\ignorespaces Example simulations run using the narrow band level set method \citep  {Lo}\relax }}{28}}
\newlabel{fig:Level Set}{{2.13}{28}}
\@writefile{toc}{\contentsline {section}{\numberline {2.5}Programming with GPU's and Accelerators}{28}}
\newlabel{sec:Lit GPU}{{2.5}{28}}
\citation{Che}
\citation{Gustafson}
\citation{Gustafson}
\citation{Olwal}
\citation{Sanchez}
\citation{Olwal}
\@writefile{toc}{\contentsline {subsection}{\numberline {2.5.1}When to parallelise a system}{29}}
\newlabel{sec:Lit Parallelism}{{2.5.1}{29}}
\newlabel{eq:Amdahl}{{2.51}{29}}
\newlabel{eq:Gustafson}{{2.52}{29}}
\@writefile{toc}{\contentsline {section}{\numberline {2.6}Augmented Reality}{29}}
\newlabel{sec:Lit AR}{{2.6}{29}}
\citation{Azuma}
\citation{Olwal}
\citation{Sanchez}
\citation{Ratti}
\citation{Ratti}
\citation{Origin}
\@writefile{toc}{\contentsline {subsection}{\numberline {2.6.1}Augmented Reality Sandbox}{30}}
\newlabel{sec:Sandbox}{{2.6.1}{30}}
\citation{Origin}
\citation{Origin}
\citation{Sanchez}
\citation{Origin}
\citation{Sanchez}
\citation{Sanchez}
\@writefile{lof}{\contentsline {figure}{\numberline {2.14}{\ignorespaces The layout of the ARSandbox \citep  {Origin}\relax }}{31}}
\newlabel{fig:Sandbox Layout}{{2.14}{31}}
\@writefile{lof}{\contentsline {figure}{\numberline {2.15}{\ignorespaces Topography information being projected back onto the sand \citep  {Sanchez}\relax }}{32}}
\newlabel{fig:Sandbox Topography}{{2.15}{32}}
\@writefile{toc}{\contentsline {section}{\numberline {2.7}Summary}{32}}
\newlabel{sec:Summary}{{2.7}{32}}
\citation{Berjak}
\@writefile{toc}{\contentsline {chapter}{\numberline {3}Design}{33}}
\@writefile{lof}{\addvspace {10\p@ }}
\@writefile{lot}{\addvspace {10\p@ }}
\newlabel{chap:Design}{{3}{33}}
\@writefile{toc}{\contentsline {section}{\numberline {3.1}Model Discussion}{33}}
\newlabel{sec:Design Model}{{3.1}{33}}
\@writefile{toc}{\contentsline {section}{\numberline {3.2}System Discussions}{34}}
\newlabel{sec:Design Program}{{3.2}{34}}
\@writefile{lof}{\contentsline {figure}{\numberline {3.1}{\ignorespaces An overview of the GUI based system\relax }}{35}}
\newlabel{fig:GUI System Overview}{{3.1}{35}}
\@writefile{toc}{\contentsline {section}{\numberline {3.3}Data Gathering and Representation}{35}}
\newlabel{sec:Design Methods}{{3.3}{35}}
\@writefile{lot}{\contentsline {table}{\numberline {3.1}{\ignorespaces PC Specifications\relax }}{36}}
\newlabel{table:PC Specs}{{3.1}{36}}
\@writefile{lof}{\contentsline {figure}{\numberline {3.2}{\ignorespaces Labeled output of the model using the GUI system\relax }}{37}}
\newlabel{fig:GUI Output}{{3.2}{37}}
\@writefile{toc}{\contentsline {section}{\numberline {3.4}Rejected Optimisation Suggestions}{37}}
\newlabel{sec:Design Rejected}{{3.4}{37}}
\@writefile{toc}{\contentsline {subsection}{\numberline {3.4.1}Region Of Interest Approach}{37}}
\newlabel{sec:ROI}{{3.4.1}{37}}
\@writefile{lof}{\contentsline {figure}{\numberline {3.3}{\ignorespaces Example ROI based on burning cells\relax }}{38}}
\newlabel{fig:ROI}{{3.3}{38}}
\@writefile{toc}{\contentsline {subsection}{\numberline {3.4.2}Padding}{38}}
\@writefile{lof}{\contentsline {figure}{\numberline {3.4}{\ignorespaces Illustration on how two-dimensional data would be padded\relax }}{39}}
\newlabel{fig:Padding}{{3.4}{39}}
\@writefile{toc}{\contentsline {chapter}{\numberline {4}Implementation}{40}}
\@writefile{lof}{\addvspace {10\p@ }}
\@writefile{lot}{\addvspace {10\p@ }}
\newlabel{chap:Implementation}{{4}{40}}
\@writefile{toc}{\contentsline {section}{\numberline {4.1}Sequential CPU Version}{40}}
\newlabel{sec:Sequential CPU}{{4.1}{40}}
\@writefile{toc}{\contentsline {subsection}{\numberline {4.1.1}Spread Model Without Wind and Slope}{40}}
\newlabel{eq:Translate 2D to Index}{{4.1}{40}}
\newlabel{lst:Seq A Signature}{{4.1}{41}}
\@writefile{lol}{\contentsline {lstlisting}{\numberline {4.1}Globals and Method Signature for Sequential with no Wind or Slope}{41}}
\newlabel{eq:CA ROS No Wind or Slope}{{4.2}{42}}
\@writefile{lof}{\contentsline {figure}{\numberline {4.1}{\ignorespaces Possible Code Paths for Update Method\relax }}{42}}
\newlabel{fig:Code Paths}{{4.1}{42}}
\newlabel{eq:Split Transition}{{4.3}{43}}
\newlabel{lst:Seq Update Full}{{4.2}{43}}
\@writefile{lol}{\contentsline {lstlisting}{\numberline {4.2}Sequential Update Method for No Wind or Slope}{43}}
\newlabel{lst:Coord}{{4.3}{44}}
\@writefile{lol}{\contentsline {lstlisting}{\numberline {4.3}Inline Conversion of $x-y$ coordinates to array index}{44}}
\newlabel{lst:ROS1}{{4.4}{44}}
\@writefile{lol}{\contentsline {lstlisting}{\numberline {4.4}Calculating a Neighbour's ROS for No Wind or Slope}{44}}
\newlabel{lst:Chrono}{{4.5}{45}}
\@writefile{lol}{\contentsline {lstlisting}{\numberline {4.5}Timing a call to the Update() method using the chrono class}{45}}
\@writefile{toc}{\contentsline {subsection}{\numberline {4.1.2}Including Wind and Slope}{45}}
\newlabel{lst:Slope}{{4.6}{45}}
\@writefile{lol}{\contentsline {lstlisting}{\numberline {4.6}Including slope into the RateOfSpreadAt method}{45}}
\newlabel{lst:Angle}{{4.7}{45}}
\@writefile{lol}{\contentsline {lstlisting}{\numberline {4.7}Calculating the relative angle between the neighbour and wind directions}{45}}
\newlabel{lst:Wind}{{4.8}{46}}
\@writefile{lol}{\contentsline {lstlisting}{\numberline {4.8}Adding wind into the RateOfSpreadAt method}{46}}
\@writefile{toc}{\contentsline {section}{\numberline {4.2}Parallel CPU Version}{47}}
\newlabel{sec:Parallel CPU Version}{{4.2}{47}}
\newlabel{lst:Pragma}{{4.9}{47}}
\@writefile{lol}{\contentsline {lstlisting}{\numberline {4.9}OpenMP pragma to enable multi-threading for a for loop}{47}}
\@writefile{toc}{\contentsline {section}{\numberline {4.3}GPU Version}{47}}
\newlabel{sec:GPU Version}{{4.3}{47}}
\newlabel{lst:Before Update}{{4.10}{47}}
\@writefile{lol}{\contentsline {lstlisting}{\numberline {4.10}Pre-simulation GPU code}{47}}
\newlabel{lst:GPU Sig}{{4.11}{48}}
\@writefile{lol}{\contentsline {lstlisting}{\numberline {4.11}Kernel and supporting GPU method signatures}{48}}
\@writefile{lof}{\contentsline {figure}{\numberline {4.2}{\ignorespaces Strided vs. Contiguous elements per thread\relax }}{49}}
\newlabel{fig:Strided vs Contiguous Data}{{4.2}{49}}
\@writefile{lof}{\contentsline {figure}{\numberline {4.3}{\ignorespaces Strided vs. Contiguous data structures\relax }}{49}}
\newlabel{fig:Strided Data}{{4.3}{49}}
\@writefile{toc}{\contentsline {section}{\numberline {4.4}GUI Proof of Concept}{50}}
\newlabel{sec:GUI PoC}{{4.4}{50}}
\@writefile{toc}{\contentsline {chapter}{\numberline {5}Results and Discussion}{52}}
\@writefile{lof}{\addvspace {10\p@ }}
\@writefile{lot}{\addvspace {10\p@ }}
\newlabel{chap:Results}{{5}{52}}
\@writefile{toc}{\contentsline {section}{\numberline {5.1}Model Discussion}{52}}
\@writefile{toc}{\contentsline {subsection}{\numberline {5.1.1}No Wind or Slope}{52}}
\@writefile{lof}{\contentsline {figure}{\numberline {5.1}{\ignorespaces Fire front evolution with no wind or slope\relax }}{53}}
\newlabel{fig:Results No Wind or Slope}{{5.1}{53}}
\@writefile{toc}{\contentsline {subsection}{\numberline {5.1.2}Wind and Slope Effects}{53}}
\@writefile{lof}{\contentsline {figure}{\numberline {5.2}{\ignorespaces Fire front evolution with variable wind and slope\relax }}{54}}
\newlabel{fig:Wind and Slope}{{5.2}{54}}
\@writefile{lof}{\contentsline {figure}{\numberline {5.3}{\ignorespaces Illustration of fire spread in generated terrain\relax }}{55}}
\newlabel{fig:Wind and Slope Mayhem}{{5.3}{55}}
\@writefile{toc}{\contentsline {subsection}{\numberline {5.1.3}Overshooting}{55}}
\newlabel{eq:New Time Burning}{{5.1}{56}}
\@writefile{lot}{\contentsline {table}{\numberline {5.1}{\ignorespaces Overshoots over 100 steps, DEM Scale of 10 m, and ROS of 0.5\relax }}{56}}
\newlabel{table:Overshoot Sim Speed}{{5.1}{56}}
\@writefile{lot}{\contentsline {table}{\numberline {5.2}{\ignorespaces Overshoots over 100 steps, $\Delta t$ of 1000 ms, and ROS of 0.5\relax }}{57}}
\newlabel{table:Overshoot Scale}{{5.2}{57}}
\@writefile{lot}{\contentsline {table}{\numberline {5.3}{\ignorespaces Overshoots over 100 steps, DEM Scale of 10 m, and $\Delta t$ of 1000 ms\relax }}{57}}
\newlabel{table:Overshoot ROS}{{5.3}{57}}
\@writefile{lof}{\contentsline {figure}{\numberline {5.4}{\ignorespaces Changes in the fire front with depending on the severity of overshooting\relax }}{57}}
\newlabel{fig:Overshoot}{{5.4}{57}}
\@writefile{toc}{\contentsline {section}{\numberline {5.2}Performance Discussion}{58}}
\newlabel{sec:Performance}{{5.2}{58}}
\@writefile{lot}{\contentsline {table}{\numberline {5.4}{\ignorespaces Average and Cumulative Timings for Each Processing Method\relax }}{58}}
\newlabel{table:Compare Timings}{{5.4}{58}}
\@writefile{lof}{\contentsline {figure}{\numberline {5.5}{\ignorespaces Average Execution Times Based on Width/Height Values\relax }}{59}}
\newlabel{fig:Avg Time Bad}{{5.5}{59}}
\@writefile{lof}{\contentsline {figure}{\numberline {5.6}{\ignorespaces Average Execution Times Based on Total Number of Cells\relax }}{60}}
\newlabel{fig:Avg Time}{{5.6}{60}}
\@writefile{lof}{\contentsline {figure}{\numberline {5.7}{\ignorespaces Standard Deviations For Each Method\relax }}{61}}
\newlabel{fig:Stddev}{{5.7}{61}}
\@writefile{lof}{\contentsline {figure}{\numberline {5.8}{\ignorespaces Deviation from the Mean for Each Iteration\relax }}{63}}
\newlabel{fig:Stddev Compare}{{5.8}{63}}
\newlabel{fig:Stddev Seq}{{5.9a}{64}}
\newlabel{sub@fig:Stddev Seq}{{a}{64}}
\newlabel{fig:Stddev Par}{{5.9b}{64}}
\newlabel{sub@fig:Stddev Par}{{b}{64}}
\newlabel{fig:Stddev GPU}{{5.9c}{65}}
\newlabel{sub@fig:Stddev GPU}{{c}{65}}
\@writefile{lof}{\contentsline {figure}{\numberline {5.9}{\ignorespaces Deviation from the Mean for Each Iteration with Modified Graphs\relax }}{65}}
\newlabel{fig:Stddev Compare2}{{5.9}{65}}
\@writefile{toc}{\contentsline {chapter}{\numberline {6}Conclusions and Future Work}{66}}
\@writefile{lof}{\addvspace {10\p@ }}
\@writefile{lot}{\addvspace {10\p@ }}
\newlabel{chap:Conclusion}{{6}{66}}
\bibstyle{ruauthordate}
\bibdata{references}
\bibcite{Albini}{{1}{1976}{{Albini}}{{}}}
\bibcite{Anderson}{{2}{1982}{{Anderson}}{{}}}
\bibcite{Ayeni}{{3}{2014}{{Ayeni \& Samuel}}{{}}}
\bibcite{Azuma}{{4}{1997}{{Azuma}}{{}}}
\bibcite{Beaudoin}{{5}{2001}{{Beaudoin {\em  et~al.}}}{{}}}
\bibcite{Berjak}{{6}{2002}{{Berjak \& Hearne}}{{}}}
\bibcite{Bonham}{{7}{2014}{{Bonham-Carter}}{{}}}
\bibcite{Che}{{8}{2008}{{Che {\em  et~al.}}}{{}}}
\bibcite{Encinas}{{9}{2007}{{Encinas {\em  et~al.}}}{{}}}
\bibcite{Frandsen}{{10}{1971}{{Frandsen}}{{}}}
\bibcite{Gustafson}{{11}{1988}{{Gustafson}}{{}}}
\bibcite{KT}{{12}{1997}{{Karafyllidis \& Thanailakis}}{{}}}
\@writefile{toc}{\contentsline {chapter}{References}{68}}
\bibcite{Lo}{{13}{2012}{{Lo}}{{}}}
\bibcite{Offermo}{{14}{2016}{{Offermo}}{{}}}
\bibcite{Olwal}{{15}{2009}{{Olwal}}{{}}}
\bibcite{Osher}{{16}{1988}{{Osher \& Sethian}}{{}}}
\bibcite{Ratti}{{17}{2004}{{Ratti {\em  et~al.}}}{{}}}
\bibcite{Origin}{{18}{2016}{{Regents of the University of California}}{{}}}
\bibcite{Rothermel}{{19}{1972}{{Rothermel {\em  et~al.}}}{{}}}
\bibcite{Sanchez}{{20}{2016}{{S\'{a}nchez {\em  et~al.}}}{{}}}
\bibcite{Shingare}{{21}{2013}{{Shingare \& Kale}}{{}}}
\bibcite{Trollope1978}{{22}{1978}{{Trollope}}{{}}}
\bibcite{Trollope1984}{{23}{1984}{{Trollope}}{{}}}
\bibcite{Weise_Effect}{{24}{1996}{{Weise \& Biging}}{{}}}
\bibcite{Wells}{{25}{2008}{{Wells}}{{}}}
\bibcite{Werner}{{26}{2016}{{Werner {\em  et~al.}}}{{}}}
\bibcite{Wang}{{27}{2016}{{Xuehua {\em  et~al.}}}{{}}}
\@writefile{toc}{\contentsline {chapter}{Appendices}{71}}
\@writefile{toc}{\contentsline {chapter}{\numberline {A}Summary of CA Model Equations}{72}}
\@writefile{lof}{\addvspace {10\p@ }}
\@writefile{lot}{\addvspace {10\p@ }}
\newlabel{app:Summary}{{A}{72}}
\@writefile{toc}{\contentsline {chapter}{\numberline {B}Sequential CPU model code}{75}}
\@writefile{lof}{\addvspace {10\p@ }}
\@writefile{lot}{\addvspace {10\p@ }}
\newlabel{app:seq}{{B}{75}}
\@writefile{lol}{\contentsline {lstlisting}{\numberline {B.1}Sequential CPU code}{75}}
\@writefile{toc}{\contentsline {chapter}{\numberline {C}Parallel CPU model code}{82}}
\@writefile{lof}{\addvspace {10\p@ }}
\@writefile{lot}{\addvspace {10\p@ }}
\newlabel{app:par}{{C}{82}}
\@writefile{lol}{\contentsline {lstlisting}{\numberline {C.1}Parallel CPU code}{82}}
\@writefile{toc}{\contentsline {chapter}{\numberline {D}GPU model code}{89}}
\@writefile{lof}{\addvspace {10\p@ }}
\@writefile{lot}{\addvspace {10\p@ }}
\newlabel{app:gpu}{{D}{89}}
\@writefile{lol}{\contentsline {lstlisting}{\numberline {D.1}GPU code}{89}}
\@writefile{toc}{\contentsline {chapter}{\numberline {E}User Guide}{97}}
\@writefile{lof}{\addvspace {10\p@ }}
\@writefile{lot}{\addvspace {10\p@ }}
\newlabel{app:Guide}{{E}{97}}
\@writefile{lof}{\contentsline {figure}{\numberline {E.1}{\ignorespaces GUI Guide\relax }}{97}}
\newlabel{fig:GUI guide}{{E.1}{97}}
