\addvspace {10\p@ }
\addvspace {10\p@ }
\contentsline {table}{\numberline {2.1}{\ignorespaces Fuel Model Descriptions and Parameters\relax }}{9}
\contentsline {table}{\numberline {2.2}{\ignorespaces Summary of Wind Vector Decompositions \citep {Wang}\relax }}{20}
\addvspace {10\p@ }
\contentsline {table}{\numberline {3.1}{\ignorespaces PC Specifications\relax }}{36}
\addvspace {10\p@ }
\addvspace {10\p@ }
\contentsline {table}{\numberline {5.1}{\ignorespaces Overshoots over 100 steps, DEM Scale of 10 m, and ROS of 0.5\relax }}{56}
\contentsline {table}{\numberline {5.2}{\ignorespaces Overshoots over 100 steps, $\Delta t$ of 1000 ms, and ROS of 0.5\relax }}{57}
\contentsline {table}{\numberline {5.3}{\ignorespaces Overshoots over 100 steps, DEM Scale of 10 m, and $\Delta t$ of 1000 ms\relax }}{57}
\contentsline {table}{\numberline {5.4}{\ignorespaces Average and Cumulative Timings for Each Processing Method\relax }}{58}
\addvspace {10\p@ }
\addvspace {10\p@ }
\addvspace {10\p@ }
\addvspace {10\p@ }
\addvspace {10\p@ }
\addvspace {10\p@ }
