\relax 
\citation{KT}
\citation{KT}
\citation{Wang}
\citation{Encinas}
\citation{KT}
\providecommand\tcolorbox@label[2]{}
\@writefile{toc}{\contentsline {section}{\numberline {1}Control CA State Transition Function}{1}}
\newlabel{sec:Basic CA}{{1}{1}}
\newlabel{eq:state}{{1}{1}}
\newlabel{eq:ta}{{2}{1}}
\newlabel{eq:time step}{{3}{1}}
\newlabel{eq:td}{{4}{1}}
\newlabel{eq:pythag}{{5}{1}}
\citation{KT}
\citation{Encinas}
\citation{Encinas}
\citation{Encinas}
\citation{Encinas}
\newlabel{eq:lambda}{{6}{2}}
\newlabel{eq:lambda2}{{7}{2}}
\newlabel{eq:Vm}{{8}{2}}
\newlabel{eq:Vadj}{{9}{2}}
\newlabel{eq:Vdiag}{{10}{2}}
\newlabel{eq:baseState}{{11}{2}}
\@writefile{toc}{\contentsline {section}{\numberline {2}Factoring in Wind and Slope}{2}}
\newlabel{sec:windAndSlope}{{2}{2}}
\newlabel{eq:windAndSlopeFactor}{{12}{2}}
\newlabel{eq:CA2}{{13}{2}}
\citation{Berjak}
\@writefile{toc}{\contentsline {section}{\numberline {3}Heterogeneous Environments}{3}}
\newlabel{sec:finalCA}{{3}{3}}
\newlabel{eq:burnOutHet}{{14}{3}}
\newlabel{eq:CAFinal}{{15}{3}}
\@writefile{toc}{\contentsline {section}{\numberline {4}Discrete Cell States}{3}}
\newlabel{sec:DiscreteStateTransitions}{{4}{3}}
\newlabel{eq:burning}{{16}{3}}
\newlabel{eq:extinction}{{17}{3}}
\@writefile{lof}{\contentsline {figure}{\numberline {1}{\ignorespaces Possible States for Cell $(i,j)$ and their transitions\relax }}{4}}
\providecommand*\caption@xref[2]{\@setref\relax\@undefined{#1}}
\newlabel{fig:states}{{1}{4}}
\@writefile{toc}{\contentsline {section}{\numberline {5}Future Work and Notes}{4}}
\newlabel{sec:Future}{{5}{4}}
\bibstyle{ruauthordate}
\bibdata{references}
\bibcite{Berjak}{{1}{2002}{{Berjak \& Hearne}}{{}}}
\bibcite{Encinas}{{2}{2007}{{Encinas {\em  et~al.}}}{{}}}
\bibcite{KT}{{3}{1997}{{Karafyllidis \& Thanailakis}}{{}}}
\bibcite{Wang}{{4}{2016}{{Wang {\em  et~al.}}}{{}}}
\@writefile{toc}{\contentsline {section}{Appendices}{6}}
