\begin{thebibliography}{}

\bibitem[\protect\citename{Berjak \& Hearne, }2002]{Berjak}
Berjak, Stephen~G, \& Hearne, John~W. 2002.
\newblock An improved cellular automaton model for simulating fire in a
  spatially heterogeneous Savanna system.
\newblock {\em Ecological modelling}, {\bf 148}(2), 133--151.

\bibitem[\protect\citename{Encinas {\em et~al.}, }2007]{Encinas}
Encinas, Ascensi{\'o}n~Hern{\'a}ndez, Encinas, Luis~Hern{\'a}ndez, White,
  S.~Hoya, del Rey, {\'A}ngel~Mart{\'i}n, \& S{\'a}nchez,
  Gerardo~Rodr{\'i}guez. 2007.
\newblock Simulation of forest fire fronts using cellular automata.
\newblock {\em Advances in Engineering Software}, {\bf 38}, 372--378.

\bibitem[\protect\citename{Karafyllidis \& Thanailakis, }1997]{KT}
Karafyllidis, Ioannis, \& Thanailakis, Adonios. 1997.
\newblock A model for predicting forest fire spreading using cellular automata.
\newblock {\em Ecological Modelling}, {\bf 99}(1), 87--97.

\bibitem[\protect\citename{Wang {\em et~al.}, }2016]{Wang}
Wang, Xuehua, Liu, Chang, Liu, Jiaqi, Qin, Xuezhi, Wang, Ning, \& Zhou, Wenjun.
  2016.
\newblock A cellular automata model for forest fire spreading simulation.
\newblock {\em 2016 IEEE Symposium Series on Computational Intelligence
  (SSCI)},  1--6.

\end{thebibliography}
