\relax 
\citation{Bonham}
\citation{Bonham}
\citation{Offermo}
\citation{Offermo}
\citation{Werner}
\citation{Werner}
\providecommand\tcolorbox@label[2]{}
\@writefile{toc}{\contentsline {section}{\numberline {1}Geographical Information Systems}{1}}
\newlabel{sec:GIS}{{1}{1}}
\@writefile{toc}{\contentsline {subsection}{\numberline {1.1}Topographic Maps}{1}}
\newlabel{sec:Topographic Maps}{{1.1}{1}}
\citation{Ayeni}
\citation{Shingare}
\citation{Shingare}
\citation{Shingare}
\citation{Shingare}
\citation{Shingare}
\citation{Shingare}
\citation{Shingare}
\@writefile{toc}{\contentsline {subsection}{\numberline {1.2}Digital Elevation Models}{2}}
\newlabel{sec:DEM}{{1.2}{2}}
\@writefile{lof}{\contentsline {figure}{\numberline {1}{\ignorespaces DEM data structures \citep  {Shingare}\relax }}{2}}
\providecommand*\caption@xref[2]{\@setref\relax\@undefined{#1}}
\newlabel{fig:DEM Data}{{1}{2}}
\citation{Lo}
\citation{Lo}
\citation{Lo}
\citation{Lo}
\citation{Lo}
\citation{Lo}
\citation{Lo}
\citation{Lo}
\citation{Lo}
\@writefile{toc}{\contentsline {section}{\numberline {2}Fire Simulation}{3}}
\newlabel{sec:Fire Simulation}{{2}{3}}
\@writefile{toc}{\contentsline {subsection}{\numberline {2.1}Data Representation Comparison}{3}}
\newlabel{sec:Fire Simulation Data}{{2.1}{3}}
\@writefile{lof}{\contentsline {figure}{\numberline {2}{\ignorespaces Raster-based representation \citep  {Lo}\relax }}{3}}
\newlabel{fig:Raster representation}{{2}{3}}
\citation{Lo}
\citation{Lo}
\citation{Lo}
\citation{Lo}
\citation{Lo}
\citation{Lo}
\citation{Lo}
\citation{Lo}
\citation{Lo}
\citation{Lo}
\citation{Beaudoin}
\@writefile{lof}{\contentsline {figure}{\numberline {3}{\ignorespaces Vector-based representation \citep  {Lo}\relax }}{4}}
\newlabel{fig:Vector representation}{{3}{4}}
\@writefile{lof}{\contentsline {figure}{\numberline {4}{\ignorespaces Huygens' Principle \citep  {Lo}\relax }}{4}}
\newlabel{fig:Huygens principle}{{4}{4}}
\@writefile{lof}{\contentsline {figure}{\numberline {5}{\ignorespaces Various types of fire-front crossovers \citep  {Lo}\relax }}{4}}
\newlabel{fig:crossovers}{{5}{4}}
\citation{Beaudoin}
\citation{Beaudoin}
\citation{Beaudoin}
\citation{Beaudoin}
\citation{Beaudoin}
\citation{Beaudoin}
\citation{Beaudoin}
\citation{Beaudoin}
\citation{Beaudoin}
\citation{Beaudoin}
\citation{Beaudoin}
\citation{Beaudoin}
\@writefile{toc}{\contentsline {subsection}{\numberline {2.2}Realistic fire simulation over a mesh}{5}}
\newlabel{sec:Mesh Method}{{2.2}{5}}
\@writefile{lof}{\contentsline {figure}{\numberline {6}{\ignorespaces Broken-line boundary on a mesh \citep  {Beaudoin}\relax }}{5}}
\newlabel{fig:Mesh Boundary}{{6}{5}}
\citation{Beaudoin}
\citation{Beaudoin}
\citation{Beaudoin}
\citation{Beaudoin}
\citation{Beaudoin}
\citation{Lo}
\citation{Lo}
\citation{Lo}
\citation{Lo}
\citation{Lo}
\citation{Lo}
\@writefile{lof}{\contentsline {figure}{\numberline {7}{\ignorespaces Transforming a vertex's velocity \citep  {Beaudoin}\relax }}{6}}
\newlabel{fig:Mesh Velocity Transform}{{7}{6}}
\@writefile{toc}{\contentsline {subsection}{\numberline {2.3}Level Set Method for heterogeneous environments}{6}}
\newlabel{sec:Level Set Method}{{2.3}{6}}
\citation{Lo}
\citation{Lo}
\citation{Lo}
\citation{Lo}
\citation{Lo}
\citation{Lo}
\citation{Lo}
\citation{Forthofer}
\citation{Forthofer}
\citation{Forthofer}
\citation{Forthofer}
\citation{Forthofer}
\citation{Forthofer}
\citation{Forthofer}
\citation{Forthofer}
\citation{Forthofer}
\@writefile{lof}{\contentsline {figure}{\numberline {8}{\ignorespaces Level Set simulation \citep  {Lo}\relax }}{7}}
\newlabel{fig:Level Set}{{8}{7}}
\@writefile{lof}{\contentsline {figure}{\numberline {9}{\ignorespaces Fast Marching simulation \citep  {Lo}\relax }}{7}}
\newlabel{fig:Fast Marching}{{9}{7}}
\@writefile{toc}{\contentsline {subsection}{\numberline {2.4}Wind Modelling}{7}}
\newlabel{sec:Wind}{{2.4}{7}}
\citation{Finney}
\citation{Finney}
\citation{Finney}
\citation{Finney}
\citation{Finney}
\citation{Finney}
\citation{Wells}
\citation{Wells}
\citation{Rothermel}
\@writefile{toc}{\contentsline {subsection}{\numberline {2.5}Ensemble Fire Simulations}{8}}
\newlabel{sec:Ensemble}{{2.5}{8}}
\@writefile{toc}{\contentsline {subsection}{\numberline {2.6}Rothermel's Fire Model}{8}}
\newlabel{sec:Rothermel}{{2.6}{8}}
\citation{Rothermel}
\citation{Rothermel}
\citation{Rothermel}
\citation{Rothermel}
\citation{Rothermel}
\citation{Rothermel}
\citation{Rothermel}
\citation{Rothermel}
\citation{Rothermel}
\citation{Che}
\citation{Che}
\citation{Che}
\citation{Che}
\citation{Che}
\citation{Che}
\@writefile{lof}{\contentsline {figure}{\numberline {10}{\ignorespaces Schematic of fire: No wind \citep  {Rothermel}\relax }}{9}}
\newlabel{fig:Fire No Wind}{{10}{9}}
\@writefile{lof}{\contentsline {figure}{\numberline {11}{\ignorespaces Schematic of fire: Wind-driven \citep  {Rothermel}\relax }}{9}}
\newlabel{fig:Fire Wind}{{11}{9}}
\@writefile{lof}{\contentsline {figure}{\numberline {12}{\ignorespaces Schematic of fire: up-slope. \citep  {Rothermel}\relax }}{9}}
\newlabel{fig:Fire Up}{{12}{9}}
\@writefile{toc}{\contentsline {section}{\numberline {3}Programming with GPU's and Accelerators}{9}}
\newlabel{sec:GPU}{{3}{9}}
\citation{Gustafson}
\citation{Gustafson}
\citation{Sanchez}
\citation{Bailey}
\citation{Bailey}
\citation{OpenACC}
\citation{OpenACC}
\citation{OpenACC}
\@writefile{toc}{\contentsline {subsection}{\numberline {3.1}Should I parallelise my code?}{10}}
\newlabel{sec:Parallelism?}{{3.1}{10}}
\@writefile{toc}{\contentsline {subsection}{\numberline {3.2}Graphics Shaders}{10}}
\newlabel{sec:shaders}{{3.2}{10}}
\@writefile{toc}{\contentsline {subsection}{\numberline {3.3}OpenACC}{10}}
\newlabel{sec:OpenACC}{{3.3}{10}}
\citation{OpenACC}
\citation{CUDA}
\citation{CUDA}
\citation{CUDA}
\citation{CUDA}
\citation{CUDA}
\citation{Olwal}
\citation{Sanchez}
\citation{Olwal}
\citation{Olwal}
\@writefile{toc}{\contentsline {subsection}{\numberline {3.4}CUDA}{11}}
\newlabel{sec:CUDA}{{3.4}{11}}
\@writefile{toc}{\contentsline {section}{\numberline {4}Augmented Reality}{11}}
\newlabel{sec:AR}{{4}{11}}
\citation{Azuma}
\citation{Olwal}
\citation{Sanchez}
\citation{Ratti}
\citation{Ratti}
\citation{Origin}
\citation{Origin}
\citation{Origin}
\citation{Sanchez}
\citation{Origin}
\@writefile{toc}{\contentsline {subsection}{\numberline {4.1}Augmented Reality Sandbox}{12}}
\newlabel{sec:Sandbox}{{4.1}{12}}
\@writefile{lof}{\contentsline {figure}{\numberline {13}{\ignorespaces The layout of the ARSandbox \citep  {Origin}\relax }}{12}}
\newlabel{fig:Sandbox Layout}{{13}{12}}
\citation{Sanchez}
\citation{Sanchez}
\citation{Shirai}
\citation{Borenstein}
\citation{Borenstein}
\citation{Han}
\@writefile{lof}{\contentsline {figure}{\numberline {14}{\ignorespaces Topography information being projected back onto the sand \citep  {Sanchez}\relax }}{13}}
\newlabel{fig:Sandbox Topography}{{14}{13}}
\@writefile{toc}{\contentsline {subsection}{\numberline {4.2}Computer Vision and the Microsoft Kinect}{13}}
\newlabel{sec:Computer Vision}{{4.2}{13}}
\@writefile{toc}{\contentsline {section}{\numberline {5}Summary}{13}}
\newlabel{sec:Summary}{{5}{13}}
\bibstyle{ruauthordate}
\bibdata{LitReviewBib}
\bibcite{Ayeni}{{1}{2014}{{Ayeni \& Samuel}}{{}}}
\bibcite{Azuma}{{2}{1997}{{Azuma}}{{}}}
\bibcite{Bailey}{{3}{2013}{{Bailey}}{{}}}
\bibcite{Beaudoin}{{4}{2001}{{Beaudoin {\em  et~al.}}}{{}}}
\bibcite{Bonham}{{5}{2014}{{Bonham-Carter}}{{}}}
\bibcite{Borenstein}{{6}{2012}{{Borenstein}}{{}}}
\bibcite{Che}{{7}{2008}{{Che {\em  et~al.}}}{{}}}
\bibcite{Finney}{{8}{2011}{{Finney {\em  et~al.}}}{{}}}
\bibcite{Forthofer}{{9}{2007}{{Forthofer}}{{}}}
\bibcite{Gustafson}{{10}{1988}{{Gustafson}}{{}}}
\bibcite{Han}{{11}{2013}{{Han {\em  et~al.}}}{{}}}
\bibcite{Lo}{{12}{2012}{{Lo}}{{}}}
\bibcite{CUDA}{{13}{2017}{{NVIDIA}}{{}}}
\bibcite{Offermo}{{14}{2016}{{Offermo}}{{}}}
\bibcite{Olwal}{{15}{2009}{{Olwal}}{{}}}
\bibcite{OpenACC}{{16}{2015}{{OpenACC-Standard.org}}{{}}}
\bibcite{Ratti}{{17}{2004}{{Ratti {\em  et~al.}}}{{}}}
\bibcite{Origin}{{18}{2016}{{Regents of the University of California}}{{}}}
\bibcite{Rothermel}{{19}{2007}{{Rothermel}}{{}}}
\bibcite{Sanchez}{{20}{2016}{{S\'{a}nchez {\em  et~al.}}}{{}}}
\bibcite{Shingare}{{21}{2013}{{Shingare \& Kale}}{{}}}
\bibcite{Shirai}{{22}{2012}{{Shirai}}{{}}}
\bibcite{Wells}{{23}{2014}{{Wells \& Rothermel}}{{}}}
\bibcite{Werner}{{24}{2016}{{Werner {\em  et~al.}}}{{}}}
