This is BibTeX, Version 0.99d (TeX Live 2015/Debian)
Capacity: max_strings=35307, hash_size=35307, hash_prime=30011
The top-level auxiliary file: LitReview.aux
The style file: ruauthordate.bst
Database file #1: LitReviewBib.bib
Warning--empty booktitle in Wells
You've used 24 entries,
            2562 wiz_defined-function locations,
            768 strings with 9389 characters,
and the built_in function-call counts, 8835 in all, are:
= -- 853
> -- 315
< -- 76
+ -- 103
- -- 89
* -- 681
:= -- 1498
add.period$ -- 104
call.type$ -- 24
change.case$ -- 147
chr.to.int$ -- 24
cite$ -- 25
duplicate$ -- 332
empty$ -- 672
format.name$ -- 112
if$ -- 1810
int.to.chr$ -- 1
int.to.str$ -- 0
missing$ -- 19
newline$ -- 129
num.names$ -- 72
pop$ -- 136
preamble$ -- 1
purify$ -- 171
quote$ -- 0
skip$ -- 354
stack$ -- 0
substring$ -- 462
swap$ -- 63
text.length$ -- 1
text.prefix$ -- 0
top$ -- 0
type$ -- 186
warning$ -- 1
while$ -- 60
width$ -- 0
write$ -- 314
(There was 1 warning)
