\relax 
\providecommand\tcolorbox@label[2]{}
\@writefile{toc}{\contentsline {section}{\numberline {1}Principal Investigator}{1}}
\newlabel{Investigator}{{1}{1}}
\@writefile{toc}{\contentsline {section}{\numberline {2}Project Title}{1}}
\newlabel{sec:Title}{{2}{1}}
\@writefile{toc}{\contentsline {section}{\numberline {3}Problem Statement}{1}}
\newlabel{sec:Statement}{{3}{1}}
\@writefile{toc}{\contentsline {section}{\numberline {4}Research Objectives}{1}}
\newlabel{sec:Objectives}{{4}{1}}
\citation{Ratti}
\citation{Ratti}
\citation{Sanchez}
\citation{Azuma}
\citation{Azuma}
\citation{Olwal}
\citation{Olwal}
\citation{Olwal}
\citation{Olwal}
\citation{Olwal}
\citation{Bonham}
\citation{Bonham}
\citation{Offermo}
\citation{Werner}
\citation{Werner}
\citation{Werner}
\@writefile{toc}{\contentsline {section}{\numberline {5}History and Background}{2}}
\newlabel{sec:History}{{5}{2}}
\@writefile{toc}{\contentsline {subsection}{\numberline {5.1}Previous Work:}{2}}
\@writefile{toc}{\contentsline {subsection}{\numberline {5.2}Augmented Reality:}{2}}
\@writefile{toc}{\contentsline {subsection}{\numberline {5.3}Geographic Information Systems (GIS):}{2}}
\citation{Shirai}
\citation{Borenstein}
\citation{Borenstein}
\citation{Han}
\citation{OpenKinect}
\citation{OpenKinect}
\citation{Beaudoin}
\citation{Beaudoin}
\citation{Sanchez}
\citation{Bailey}
\citation{Bailey}
\@writefile{toc}{\contentsline {subsection}{\numberline {5.4}Computer Vision and the Kinect:}{3}}
\@writefile{toc}{\contentsline {subsection}{\numberline {5.5}Fire Simulations:}{3}}
\@writefile{toc}{\contentsline {subsection}{\numberline {5.6}Graphics Processing Unit (GPU) Shaders:}{3}}
\@writefile{toc}{\contentsline {section}{\numberline {6}Approach}{4}}
\newlabel{sec:Approach}{{6}{4}}
\@writefile{toc}{\contentsline {section}{\numberline {7}Requirements and Resources}{4}}
\newlabel{sec:Resources}{{7}{4}}
\@writefile{toc}{\contentsline {subsection}{\numberline {7.1}Hardware requirements for the Primary and Secondary Objectives:}{4}}
\citation{Origin}
\@writefile{toc}{\contentsline {subsection}{\numberline {7.2}Hardware requirements for the Tertiary Objectives:}{5}}
\@writefile{toc}{\contentsline {subsection}{\numberline {7.3}GPU and CPU Recommendations:}{5}}
\newlabel{HWRecommended}{{7.3}{5}}
\@writefile{toc}{\contentsline {subsection}{\numberline {7.4}Software requirements:}{5}}
\@writefile{toc}{\contentsline {section}{\numberline {8}Progression Time-line}{5}}
\newlabel{sec:Time-line}{{8}{5}}
\bibstyle{ruauthordate}
\bibdata{References}
\bibcite{Azuma}{{1}{1997}{{Azuma}}{{}}}
\bibcite{Bailey}{{2}{2013}{{Bailey}}{{}}}
\bibcite{Beaudoin}{{3}{2001}{{Beaudoin {\em  et~al.}}}{{}}}
\bibcite{Bonham}{{4}{2014}{{Bonham-Carter}}{{}}}
\bibcite{Borenstein}{{5}{2012}{{Borenstein}}{{}}}
\bibcite{Han}{{6}{2013}{{Han {\em  et~al.}}}{{}}}
\bibcite{Offermo}{{7}{2016}{{Offermo}}{{}}}
\bibcite{Olwal}{{8}{2009}{{Olwal}}{{}}}
\bibcite{OpenKinect}{{9}{2012}{{OpenKinect}}{{}}}
\bibcite{Ratti}{{10}{2004}{{Ratti {\em  et~al.}}}{{}}}
\bibcite{Origin}{{11}{2016}{{Regents of the University of California}}{{}}}
\bibcite{Sanchez}{{12}{2016}{{S\'{a}nchez {\em  et~al.}}}{{}}}
\bibcite{Shirai}{{13}{2012}{{Shirai}}{{}}}
\bibcite{Werner}{{14}{2016}{{Werner {\em  et~al.}}}{{}}}
