Iteration,Execution Time,Cumulative Execution Time
1,1.72375,1.72375
2,0.601332,2.32508
3,0.601187,2.92627
4,0.600793,3.52706
5,0.600987,4.12805
6,0.600768,4.72882
7,0.600665,5.32948
8,0.602953,5.93244
9,0.601251,6.53369
10,0.600707,7.1344
11,0.715869,7.85027
12,0.62964,8.47991
13,0.60146,9.08137
14,0.6038,9.68517
15,0.60119,10.2864
16,0.60151,10.8879
17,0.601189,11.4891
18,0.601443,12.0905
19,0.601537,12.692
20,0.601466,13.2935
21,0.603379,13.8969
22,0.60147,14.4983
23,0.601368,15.0997
24,0.601403,15.7011
25,0.60154,16.3027
26,0.601266,16.9039
27,0.605896,17.5098
28,0.601474,18.1113
29,0.60104,18.7123
30,0.602409,19.3147
31,0.601263,19.916
32,0.601233,20.5172
33,0.600885,21.1181
34,0.60246,21.7206
35,0.600845,22.3214
36,0.689584,23.011
37,0.677009,23.688
38,0.600919,24.2889
39,0.601386,24.8903
40,0.631079,25.5214
41,0.600963,26.1224
42,0.600316,26.7227
43,0.644837,27.3675
44,0.674546,28.0421
45,0.629246,28.6713
46,0.627362,29.2987
47,0.60156,29.9002
48,0.60047,30.5007
49,0.600088,31.1008
50,0.599724,31.7005
51,0.599441,32.3
52,0.599228,32.8992
53,0.827739,33.7269
54,0.712423,34.4394
55,0.599064,35.0384
56,0.598942,35.6374
57,0.599181,36.2365
58,0.598411,36.8349
59,0.600681,37.4356
60,0.597808,38.0334
61,0.597579,38.631
62,0.597796,39.2288
63,0.597047,39.8259
64,0.596749,40.4226
65,0.597245,41.0199
66,0.599009,41.6189
67,0.596718,42.2156
68,0.596145,42.8117
69,0.596058,43.4078
70,0.5956,44.0034
71,0.595485,44.5989
72,0.667166,45.266
73,0.802137,46.0682
74,0.614321,46.6825
75,0.609054,47.2916
76,0.62355,47.9151
77,0.622467,48.5376
78,0.818447,49.356
79,0.686145,50.0422
80,0.593742,50.6359
81,0.592973,51.2289
82,0.59254,51.8214
83,0.593326,52.4147
84,0.592886,53.0076
85,0.594677,53.6023
86,0.591884,54.1942
87,0.591381,54.7856
88,0.590629,55.3762
89,0.590139,55.9663
90,0.590126,56.5565
91,0.589941,57.1464
92,0.634071,57.7805
93,0.591121,58.3716
94,0.58917,58.9608
95,0.58867,59.5494
96,0.588294,60.1377
97,0.588297,60.726
98,0.589249,61.3153
99,0.698991,62.0143
100,0.602209,62.6165
